906476 302193 525
688688 506917 509
798249 936495 525
941546 465148 525
602424 168378 470
289950 447742 449
745859 585811 509
507289 56841 449
530137 917671 525
911497 712803 525
259105 842791 525
977708 805784 525
451104 922896 525
836736 988873 525
747910 177162 509
837293 721640 468
883072 879660 344
572071 30286 470
184604 166475 365
483743 23256 449
212957 51411 383
775909 954804 525
117185 817473 509
479139 162220 449
160440 765503 509
947921 636379 525
183495 875905 525
473256 708350 509
783219 817296 468
733351 549709 509
747546 702697 504
344495 686035 509
429259 383075 449
439147 540952 470
706141 503914 509
994212 703838 525
750385 846872 525
406023 864226 525
437165 554428 470
833617 569516 509
465131 820966 509
988943 853997 507
741796 321010 509
328509 106071 443
104194 192092 383
477219 889458 525
508622 543831 470
797522 586748 509
565346 71322 470
66988 728435 509
861182 281511 525
402560 691304 509
592679 164581 470
215505 244772 443
298669 74702 443
994724 817845 525
42734 474575 449
226803 6130 386
404274 267359 441
351835 282229 441
216489 551605 470
546388 980154 525
360731 689844 509
591661 748876 509
952303 342049 525
847205 40734 525
30538 333238 443
65009 190797 383
344912 140169 443
147352 795433 509
359887 611300 470
213887 898168 525
691078 492432 509
865520 279311 525
892967 335277 525
25055 614843 470
844924 535464 525
430199 376325 449
916226 815725 525
556296 973909 525
58107 88991 351
149303 799080 509
686403 262592 509
586574 22423 470
818302 777404 468
833907 494514 509
42203 802571 509
748635 962356 525
14893 863501 525
612202 6494 470
644220 483942 509
194025 340154 443
57880 827521 509
759286 817037 468
705616 742687 424
107168 87856 354
406217 593895 470
61995 300293 443
445112 258885 449
653310 818871 504
145471 988001 525
320637 851317 525
414192 191307 449
619376 554176 447
987617 25595 525
405386 651254 509
290463 442228 449
561639 659904 509
605066 325796 470
364969 482034 449
189634 762244 509
499054 960700 525
438084 864134 525
159767 312070 443
620642 840752 525
985990 226260 525
779166 202464 509
677044 283862 509
51413 402553 443
609930 697557 509
715252 503055 509
58514 202827 383
839690 797570 525
818120 734295 468
624430 873521 525
114929 101862 354
261579 766214 509
418379 201376 449
493891 231504 449
73904 569035 470
616129 895529 525
976977 28302 525
315741 42879 443
394674 165072 443
33982 433550 449
274487 389053 441
603379 75977 470
526768 168078 470
230937 62678 443
758288 66879 509
294620 559677 470
913056 673938 525
474602 955884 525
71535 61201 330
204000 578933 470
488016 435018 444
369962 635064 509
624556 165620 470
802315 813285 406
859595 920024 476
517780 436270 470
75389 615881 470
358131 931477 525
642513 193792 509
200793 97263 383
604138 53200 470
360529 707963 509
892728 900092 370
671481 865745 525
415512 438916 418
109682 304526 443
242357 312304 407
824107 912203 525
669313 917803 525
463945 232630 449
898922 921041 476
84624 120991 354
852805 365777 525
949179 915079 507
401853 539219 470
410707 629695 509
22998 955089 525
100922 162783 383
326413 174703 443
159547 832840 509
642057 176601 509
545718 768754 509
83391 750544 509
745181 742548 318
890646 983135 507
974539 50547 525
139831 848258 525
26379 307601 443
354654 251241 441
109634 225690 386
670081 86649 509
210109 50405 383
211155 232689 443
216768 49142 386
970708 50667 525
541872 614569 452
144978 633011 509
141650 481166 449
731011 832382 468
742290 137776 509
388836 973860 525
626244 15281 470
108658 513650 470
672260 699978 442
647962 682200 442
608433 486811 470
709398 844164 525
601399 10422 470
843364 493126 525
731053 993167 525
195175 909180 525
155010 177449 383
54522 883066 525
472185 968104 525
43571 961195 525
372491 687620 509
904863 383221 525
6599 653835 509
717386 605794 509
622985 603193 447
218539 716782 509
638901 620054 509
41189 769316 509
133339 759529 509
608873 687829 509
66568 124020 354
309593 798865 509
699473 890209 525
843980 725492 525
853184 737082 525
371451 341673 441
823167 314096 509
926075 82926 525
226833 657611 509
541453 133393 470
323799 242613 407
313951 396807 441
820349 474385 509
727304 582640 509
891767 785658 525
666536 745865 504
941827 733562 525
437225 665345 509
185778 100323 383
168607 527762 470
52030 299171 443
106379 685028 509
765800 210188 509
129586 17780 354
408075 442982 449
4793 433016 449
13620 393113 443
65187 915964 525
553095 588752 434
449530 695088 509
