1 10 20
100 200 125
201 210 89
900 1000 174
13800 74060 340
31329 29290 272
50636 93048 351
9172 19752 279
50418 22653 324
71803 95163 351
1153 85367 351
6282 25488 282
48374 30534 324
37042 62511 340
46569 49288 314
39332 37042 306
13117 28708 308
2263 58703 340
61505 15370 340
29748 62989 340
73600 10531 340
40768 91886 351
17612 18068 279
27100 1616 308
10770 33941 308
44990 6672 324
62296 47517 340
8968 70156 340
63055 74759 330
17257 8729 276
10700 70020 340
41385 57877 340
77503 68674 351
22001 11386 279
91365 9424 351
7819 61955 340
20933 64289 340
55313 80123 351
4681 51541 324
22574 76444 340
72158 93179 351
79904 44837 351
13886 22604 279
60680 35930 340
59697 28051 340
48598 82871 351
51107 14378 324
16072 10609 276
9862 32457 308
89795 62033 351
23851 38468 324
56111 88819 351
71720 93140 351
71239 37135 340
60919 55782 322
19434 83788 351
17142 7443 276
77938 5522 351
69942 17793 340
6934 21166 279
89051 12043 351
68336 63510 312
74875 95490 351
43747 35795 306
12334 2345 268
33967 82164 351
95492 46305 351
75556 51426 340
45851 59608 340
80034 92555 333
18035 18906 261
53648 5019 340
19255 12813 279
54292 46364 340
85361 62733 351
93931 76214 351
49616 81255 351
40624 55885 340
35230 7172 311
39283 33656 324
33623 44291 324
34110 27013 285
38606 40217 306
82727 20005 351
84023 12782 351
50901 78468 351
72763 8645 340
39503 20357 324
9613 99621 351
26793 86897 351
94540 62082 351
23219 17214 279
19617 63173 340
86311 48763 351
26857 35378 311
21387 26257 282
29363 7587 308
8611 51939 324
22802 86385 351
77926 92090 338
92848 53258 351
38529 84469 351
44162 85579 351
17064 62831 340
90042 95322 333
55558 39487 340
91150 61260 351
61140 27620 340
70360 87274 351
82808 43287 351
1210 91928 351
76515 35478 340
7584 9831 260
48646 60149 340
50486 76976 340
40360 8424 324
53472 87751 351
86450 13073 351
29074 12329 308
53493 56341 322
51487 66081 340
36894 55628 340
86617 32614 351
70912 69646 312
8516 62771 340
81601 79946 320
37605 94065 351
74728 2597 340
91872 56948 351
47204 60975 340
31204 66267 340
91892 37621 351
46243 78133 351
41962 33670 324
87838 23765 351
8740 51742 324
99455 54843 351
78841 78637 338
25253 17249 282
18080 90500 351
72820 53850 335
68005 18071 340
1834 91749 351
2087 3181 217
5932 5070 236
1776 74491 340
63131 43838 340
78700 99996 338
68196 579 340
53850 59484 322
64716 62524 330
8603 18602 279
47807 87621 351
52818 20141 340
97664 28982 351
95927 90021 333
48298 13879 324
14623 69398 340
15189 72657 340
5536 46477 324
63852 61936 330
65412 12869 340
23187 56622 340
41723 74930 340
55204 37999 340
36351 39907 306
33822 75463 340
92101 42816 351
25162 35246 311
43914 29846 324
42879 5331 324
35397 15816 311
47396 52527 340
72742 43422 340
70755 52676 335
90503 29076 351
1997 88712 351
50056 5302 324
22842 45586 324
48199 71279 340
33886 8549 308
55171 53789 260
23577 14397 282
63825 48455 340
69974 18899 340
35693 50434 314
72742 9849 340
96138 62963 351
68486 92205 351
45952 33233 324
38882 4643 324
49102 39234 314
97525 64389 351
9252 62855 340
98405 71193 351
84489 55198 351
99786 55683 351
88919 48695 351
70279 83200 351
92193 99345 328
96331 87551 333
31554 68100 340
39415 11021 324
9338 9201 260
32261 21531 308
36068 43733 306
26925 38418 324
8446 89425 351
73289 43102 340
97707 52212 351
24319 27197 308
96350 50732 351
10009 94153 351
26973 5634 308
41450 94004 351
27606 29423 272
36919 69483 340
16557 10143 276
92726 94906 315
87375 61656 351
17263 87848 351
84391 10992 351
59035 53516 322
71830 47477 340
81194 82207 289
31570 42138 324
58545 18380 340
76154 99815 351
73635 60070 335
9596 13973 276
34344 19557 311
79075 45283 351
41970 74625 340
12651 39390 324
29056 57394 340
84774 53471 351
79586 17674 351
21624 78667 351
67412 2289 340
85299 21218 351
18265 46072 324
16329 81541 351
11757 86107 351
49298 8632 324
30568 57359 340
75351 95740 351
32969 12721 308
81502 51095 351
52352 46193 314
46711 78209 351
94352 1722 351
75990 83600 351
8534 79844 351
58122 40388 340
